<svg id="white-cubes" xmlns="http://www.w3.org/2000/svg" viewBox="0 0 42 42" fill="none">
  <path d="M21 24.01L10.5118 30.0067L0 24.01L10.5118 18.0133L21 24.01Z" fill="white"/>
  <path d="M0 24.01V36.0033L10.5118 42V30.0067L0 24.01Z" fill="#DBD2E6"/>
  <path d="M21 24.01V36.0033L10.5118 42V30.0067L21 24.01Z" fill="#B4A1C8"/>
  <path d="M42 24.01L31.4882 30.0067L21 24.01L31.4882 18.0133L42 24.01Z" fill="white"/>
  <path d="M21 24.01V36.0033L31.4882 42V30.0067L21 24.01Z" fill="#DBD2E5"/>
  <path d="M42 24.01V36.0033L31.4882 42V30.0067L42 24.01Z" fill="#B4A1C8"/>
  <path d="M31.4882 5.99665L21 11.9933L10.5118 5.99665L21 0L31.4882 5.99665Z" fill="white"/>
  <path d="M10.5118 5.99664V18.0133L21 24.01V11.9933L10.5118 5.99664Z" fill="#DBD2E5"/>
  <path d="M31.4882 5.99664V18.0133L21 24.01V11.9933L31.4882 5.99664Z" fill="#B4A1C8"/>
</svg>
